{
  "name": "koaSlider",
  "title": "koaSlider",
  "description": "Responsive slider with infinite scrolling, navigation.",
  "version": "0.1.0",
  "homepage": "https://github.com/kristijanhusak/koaSlider",
  "author": {
    "name": "Kristijan Husak",
    "email": "husakkristijan@gmail.com"
  },
  "repository": {
    "type": "git",
    "url": "git://github.com/kristijanhusak/koaSlider.git"
  },
  "bugs": {
    "url": "https://github.com/kristijanhusak/koaSlider/issues"
  },
  "licenses": [
    {
      "type": "MIT",
      "url": "https://github.com/kristijanhusak/koaSlider/blob/master/LICENSE-MIT"
    }
  ],
  "dependencies": {
    "jquery": "*"
  },
  "keywords": []
}